/Users/nurlanisabekov/Documents/Nurlan/Nurlan/physIq/src/main/java/pages/HomePage.java
/Users/nurlanisabekov/Documents/Nurlan/Nurlan/physIq/src/main/java/runner/Runner.java
/Users/nurlanisabekov/Documents/Nurlan/Nurlan/physIq/src/main/java/utilities/Hooks.java
/Users/nurlanisabekov/Documents/Nurlan/Nurlan/physIq/src/main/java/pages/ContactPage.java
/Users/nurlanisabekov/Documents/Nurlan/Nurlan/physIq/src/main/java/utilities/Driver.java
/Users/nurlanisabekov/Documents/Nurlan/Nurlan/physIq/src/main/java/utilities/Config.java
/Users/nurlanisabekov/Documents/Nurlan/Nurlan/physIq/src/main/java/Test.java
/Users/nurlanisabekov/Documents/Nurlan/Nurlan/physIq/src/main/java/pages/OpeningPage.java
/Users/nurlanisabekov/Documents/Nurlan/Nurlan/physIq/src/main/java/steps/OfficeLocationSteps.java
